{
  "id": "1742d47d.e8bd2c",
  "type": "subflow",
  "name": "General Config",
  "info": "",
  "in": [
    {
      "x": 180.5,
      "y": 61,
      "wires": [
        {
          "id": "9f122278.60ede"
        }
      ]
    }
  ],
  "out": [
    {
      "x": 489.5,
      "y": 61,
      "wires": [
        {
          "id": "9f122278.60ede",
          "port": 0
        }
      ]
    }
  ],
  "flow": [
    {
      "id": "9f122278.60ede",
      "type": "function",
      "z": "1742d47d.e8bd2c",
      "name": "General Config",
      "func": "var host = msg.req.host;\n\nmsg.config = {\n  websocket : 'wss://' + host + '/ws/',\n  actionEndpoint : 'https://' + host + '/action/',\n  assets : 'https://s3-eu-west-1.amazonaws.com/connected-exp-demo-files.redant.com/assets/',\n  lib : 'https://s3-eu-west-1.amazonaws.com/connected-exp-demo-files.redant.com/lib/'\n};\n\nreturn msg;",
      "outputs": 1,
      "noerr": 0,
      "x": 335,
      "y": 61,
      "wires": [
        []
      ]
    }
  ]
}