{
  "type": "tab",
  "id": "7f8073e4.807f8c",
  "label": "Client Apps",
  "subflows": [
    "1742d47d.e8bd2c",
    "f040390e.0fbfc8",
    "1742d47d.e8bd2c",
    "1742d47d.e8bd2c",
    "1742d47d.e8bd2c",
    "f040390e.0fbfc8",
    "1742d47d.e8bd2c",
    "1742d47d.e8bd2c",
    "1742d47d.e8bd2c",
    "f040390e.0fbfc8",
    "1742d47d.e8bd2c",
    "1742d47d.e8bd2c",
    "1742d47d.e8bd2c",
    "f040390e.0fbfc8",
    "1742d47d.e8bd2c",
    "1742d47d.e8bd2c",
    "1742d47d.e8bd2c",
    "f040390e.0fbfc8",
    "1742d47d.e8bd2c",
    "1742d47d.e8bd2c",
    "1742d47d.e8bd2c",
    "f040390e.0fbfc8",
    "1742d47d.e8bd2c",
    "1742d47d.e8bd2c",
    "1742d47d.e8bd2c",
    "f040390e.0fbfc8",
    "1742d47d.e8bd2c",
    "1742d47d.e8bd2c",
    "1742d47d.e8bd2c",
    "f040390e.0fbfc8",
    "1742d47d.e8bd2c",
    "1742d47d.e8bd2c"
  ],
  "flow": [
    {
      "id": "17e1f21c.e81e0e",
      "type": "function",
      "z": "7f8073e4.807f8c",
      "name": "Add Customer Config",
      "func": "\nmsg.config.websocket = msg.config.websocket + 'customer';\nmsg.config.assets = msg.config.assets + 'phone-customer-app';\n\nreturn msg;",
      "outputs": 1,
      "noerr": 0,
      "x": 559,
      "y": 110,
      "wires": [
        [
          "919190c9.6e6e7"
        ]
      ]
    },
    {
      "id": "caa842e5.3557c",
      "type": "http in",
      "z": "7f8073e4.807f8c",
      "name": "GET customer app",
      "url": "/customer",
      "method": "get",
      "swaggerDoc": "",
      "x": 130,
      "y": 108,
      "wires": [
        [
          "496bd3e0.b6942c"
        ]
      ]
    },
    {
      "id": "ac1c880.f53e378",
      "type": "template",
      "z": "7f8073e4.807f8c",
      "name": "Customer Screens",
      "field": "payload",
      "format": "handlebars",
      "template": "<div class=\"screen\" id=\"screen-loyalty\">\n    <img src=\"{{{config.assets}}}/loyalty.jpg\" alt=\"loyality\" border=\"0\" />\n    <a style=\"top: 0%; left:0%; width: 100%; height: 100%;\" onclick=\"actions.show('screen-wishlist')\" href=\"#\"></a>\n</div>\n    \n<div class=\"screen\" id=\"screen-wishlist\" style=\"display: none;\">\n    <img src=\"{{{config.assets}}}/wishlist.jpg\" alt=\"wishlist\" border=\"0\" />\n    <a style=\"top: 0%; left:85%; width: 25%; height: 20%;\" onclick=\"actions.triggerAndAlert('requestAssistant', 'A sales assistant is on their way to help')\" href=\"#\"></a>\n</div>\n\n<script>\n    document.currentScreen = document.getElementById(\"screen-loyalty\");\n</script>",
      "x": 777.5,
      "y": 110.5,
      "wires": [
        [
          "f606388c.09f9c8"
        ]
      ]
    },
    {
      "id": "9caf623c.6350a",
      "type": "subflow:1742d47d.e8bd2c",
      "z": "7f8073e4.807f8c",
      "name": "",
      "x": 342,
      "y": 113,
      "wires": [
        [
          "5c652b6d.a39ad4"
        ]
      ]
    },
    {
      "id": "30277bb6.cfd884",
      "type": "subflow:f040390e.0fbfc8",
      "z": "7f8073e4.807f8c",
      "name": "",
      "x": 1025.250015258789,
      "y": 154.00000190734863,
      "wires": []
    },
    {
      "id": "85dd5510.7a22a8",
      "type": "function",
      "z": "7f8073e4.807f8c",
      "name": "Add Assistant Config",
      "func": "\nmsg.config.websocket = msg.config.websocket + 'assistant';\nmsg.config.assets = msg.config.assets + 'tablet-sales-app';\n\nreturn msg;",
      "outputs": 1,
      "noerr": 0,
      "x": 559,
      "y": 196.75,
      "wires": [
        [
          "c4444389.3bbbc"
        ]
      ]
    },
    {
      "id": "352959.ffcad6a8",
      "type": "http in",
      "z": "7f8073e4.807f8c",
      "name": "GET assistant app",
      "url": "/assistant",
      "method": "get",
      "swaggerDoc": "",
      "x": 130,
      "y": 194.75,
      "wires": [
        [
          "ed6d2c89.1292d"
        ]
      ]
    },
    {
      "id": "b99a357d.4665c8",
      "type": "template",
      "z": "7f8073e4.807f8c",
      "name": "Assistant Screens",
      "field": "payload",
      "format": "handlebars",
      "template": "<button style=\"top:2%; left:87%; width:10%; height:5%; z-index:10; position:fixed; font-size:4vw\">Reset</button>\n<button style=\"top:2%; left:75%; width:10%; height:5%; z-index:10; position:fixed; font-size:4vw\">Screen Cast</button>\n\n<div class=\"screen\" id=\"screen-waiting\">\n    <img src=\"{{{config.assets}}}/waiting.jpg\" alt=\"hub\" border=\"0\" />\n</div>\n\n<div class=\"screen\" id=\"screen-hub\" style=\"display: none;\">\n    <img src=\"{{{config.assets}}}/hub.jpg\" alt=\"hub\" border=\"0\" />\n    <a style=\"top: 0%; left:0%; width: 100%; height: 100%;\" onclick=\"actions.show('screen-customer')\" href=\"#\"></a>\n</div>\n    \n<div class=\"screen\" id=\"screen-customer\" style=\"display: none;\">\n    <img src=\"{{{config.assets}}}/customerRoot.jpg\" border=\"0\" />\n    <a style=\"left: 3.5%; top:55%; width: 24%; height: 40.6%;\" onclick=\"actions.show('screen-product1')\" href=\"#\"></a>\n    <a style=\"left: 27.6%; top:55%; width: 24%; height: 40.6%;\" onclick=\"actions.show('screen-product2')\" href=\"#\"></a>\n    <a style=\"left: 51.75%; top:55%; width: 24%; height: 40.6%;\" onclick=\"actions.show('screen-product3')\" href=\"#\"></a>\n    <a style=\"left: 75.9%; top:55%; width: 24%; height: 40.6%;\" onclick=\"actions.show('screen-product4')\" href=\"#\"></a>\n</div>\n\n<div class=\"screen\" id=\"screen-product1\" style=\"display: none;\">\n    <img src=\"{{{config.assets}}}/customerProduct1.jpg\" border=\"0\" />\n     <a style=\"left: 0%; top:0%; width: 10%; height: 10%;\" onclick=\"actions.show('screen-customer')\" href=\"#\"></a>\n     <a style=\"left: 0%; top:30%; width: 15%; height: 30%;\" onclick=\"actions.showRight('screen-product5')\" href=\"#\"></a>\n     <a style=\"left: 85%; top:30%; width: 15%; height: 30%;\" onclick=\"actions.showLeft('screen-product2')\" href=\"#\"></a>\n</div>\n\n<div class=\"screen\" id=\"screen-product2\" style=\"display: none;\">\n    <img src=\"{{{config.assets}}}/customerProduct2.jpg\" border=\"0\" />\n     <a style=\"left: 0%; top:0%; width: 10%; height: 10%;\" onclick=\"actions.show('screen-customer')\" href=\"#\"></a>\n     <a style=\"left: 0%; top:30%; width: 15%; height: 30%;\" onclick=\"actions.showRight('screen-product1')\" href=\"#\"></a>\n     <a style=\"left: 85%; top:30%; width: 15%; height: 30%;\" onclick=\"actions.showLeft('screen-product3')\" href=\"#\"></a>\n</div>\n\n<div class=\"screen\" id=\"screen-product3\" style=\"display: none;\">\n    <img src=\"{{{config.assets}}}/customerProduct3.jpg\" border=\"0\" />\n     <a style=\"left: 0%; top:0%; width: 10%; height: 10%;\" onclick=\"actions.show('screen-customer')\" href=\"#\"></a>\n     <a style=\"left: 0%; top:30%; width: 15%; height: 30%;\" onclick=\"actions.showRight('screen-product2')\" href=\"#\"></a>\n     <a style=\"left: 85%; top:30%; width: 15%; height: 30%;\" onclick=\"actions.showLeft('screen-product4')\" href=\"#\"></a>\n</div>\n\n<div class=\"screen\" id=\"screen-product4\" style=\"display: none;\">\n    <img src=\"{{{config.assets}}}/customerProduct4.jpg\" border=\"0\" />\n     <a style=\"left: 0%; top:0%; width: 10%; height: 10%;\" onclick=\"actions.show('screen-customer')\" href=\"#\"></a>\n     <a style=\"left: 0%; top:30%; width: 15%; height: 30%;\" onclick=\"actions.showRight('screen-product3')\" href=\"#\"></a>\n     <a style=\"left: 85%; top:30%; width: 15%; height: 30%;\" onclick=\"actions.showLeft('screen-product5')\" href=\"#\"></a>\n</div>\n\n<div class=\"screen\" id=\"screen-product5\" style=\"display: none;\">\n    <img src=\"{{{config.assets}}}/customerProduct5.jpg\" border=\"0\" />\n     <a style=\"left: 0%; top:0%; width: 10%; height: 10%;\" onclick=\"actions.show('screen-customer')\" href=\"#\"></a>\n     <a style=\"left: 0%; top:30%; width: 15%; height: 30%;\" onclick=\"actions.showRight('screen-product4')\" href=\"#\"></a>\n     <a style=\"left: 85%; top:30%; width: 15%; height: 30%;\" onclick=\"actions.showLeft('screen-product1')\" href=\"#\"></a>\n</div>\n\n\n<script>\n    document.currentScreen = document.getElementById(\"screen-waiting\");\n</script>",
      "x": 780.5000114440918,
      "y": 197.25000143051147,
      "wires": [
        [
          "f606388c.09f9c8"
        ]
      ]
    },
    {
      "id": "dc3a5798.23c5a8",
      "type": "subflow:1742d47d.e8bd2c",
      "z": "7f8073e4.807f8c",
      "name": "",
      "x": 344,
      "y": 194.75,
      "wires": [
        [
          "6ec668f1.913998"
        ]
      ]
    },
    {
      "id": "affb8b84.500478",
      "type": "function",
      "z": "7f8073e4.807f8c",
      "name": "Add Store Screen Config",
      "func": "\nmsg.config.websocket = msg.config.websocket + 'screen';\nmsg.config.assets = msg.config.assets + 'tv-floor-display';\nmsg.config.slideshowDelay = 5000;\n\nreturn msg;",
      "outputs": 1,
      "noerr": 0,
      "x": 558,
      "y": 285.5,
      "wires": [
        [
          "e3facf9c.1c053"
        ]
      ]
    },
    {
      "id": "7c70aa8d.838f54",
      "type": "http in",
      "z": "7f8073e4.807f8c",
      "name": "GET store screen app",
      "url": "/screen",
      "method": "get",
      "swaggerDoc": "",
      "x": 129,
      "y": 283.5,
      "wires": [
        [
          "52a2662c.ad5d98"
        ]
      ]
    },
    {
      "id": "488a9288.b7756c",
      "type": "template",
      "z": "7f8073e4.807f8c",
      "name": "Store Screen Screens",
      "field": "payload",
      "format": "handlebars",
      "template": "<div class=\"screen\" id=\"screen-slideshow\">\n    <img id=\"slideshow1\" src=\"{{{config.assets}}}/slideshow1.png\" alt=\"hub\" border=\"0\" />\n    <img id=\"slideshow2\" src=\"{{{config.assets}}}/slideshow2.png\" alt=\"hub\" border=\"0\" style=\"display: none;\" />\n    <img id=\"slideshow3\" src=\"{{{config.assets}}}/slideshow3.png\" alt=\"hub\" border=\"0\" style=\"display: none;\" />\n    <img id=\"slideshow4\" src=\"{{{config.assets}}}/slideshow4.png\" alt=\"hub\" border=\"0\" style=\"display: none;\" />\n\n</div>\n\n<div class=\"screen\" id=\"screen-products\" style=\"display: none;\">\n    <img id=\"product1\" src=\"{{{config.assets}}}/product-1.png\" alt=\"hub\" border=\"0\" />\n    <img id=\"product2\" src=\"{{{config.assets}}}/product-2.png\" alt=\"hub\" border=\"0\" style=\"display: none;\" />\n    <img id=\"product3\" src=\"{{{config.assets}}}/product-3.png\" alt=\"hub\" border=\"0\" style=\"display: none;\" />\n    <img id=\"product4\" src=\"{{{config.assets}}}/product-4.png\" alt=\"hub\" border=\"0\" style=\"display: none;\" />\n    <img id=\"product5\" src=\"{{{config.assets}}}/product-5.png\" alt=\"hub\" border=\"0\" style=\"display: none;\" />\n    <img id=\"product6\" src=\"{{{config.assets}}}/product-1.png\" alt=\"hub\" border=\"0\" style=\"display: none;\" />\n    <img id=\"product7\" src=\"{{{config.assets}}}/product-2.png\" alt=\"hub\" border=\"0\" style=\"display: none;\" />\n    \n    <div style=\"width:98%; height:40%; position:absolute; overflow-x:scroll; overflow-y:hidden\">\n        <img src=\"{{{config.assets}}}/details-footer.png\" style=\"height:100%; width:auto; position:relative;\">\n    </div>\n</div>\n\n<script>\n    document.currentScreen = document.getElementById(\"screen-slideshow\");\n    \n    document.currentSlide = 1;\n    \n    document.currentProduct = 1;\n    \n    //Show product subview\n    showProduct = function(product) {\n        actions.swap('product' + document.currentProduct, 'product' + product);\n        document.currentProduct = product;\n    };\n    \n    \n    // Automated slideshow\n    setInterval(function() {\n        \n        var slide = document.getElementById(\"slideshow\" + document.currentSlide.toString());\n        slide.style.display = 'none';\n        \n        if (document.currentSlide === 4) { document.currentSlide = 0;}\n        \n        document.currentSlide++;\n        \n        var slide = document.getElementById(\"slideshow\" + document.currentSlide.toString());\n        slide.style.display = 'block';\n      \n    }, {{{config.slideshowDelay}}});\n    \n</script>",
      "x": 779.5000114440918,
      "y": 286.0000014305115,
      "wires": [
        [
          "f606388c.09f9c8"
        ]
      ]
    },
    {
      "id": "988f9fd.f67706",
      "type": "subflow:1742d47d.e8bd2c",
      "z": "7f8073e4.807f8c",
      "name": "",
      "x": 343,
      "y": 283.5,
      "wires": [
        [
          "8d47a4a.f72b858"
        ]
      ]
    },
    {
      "id": "5c652b6d.a39ad4",
      "type": "function",
      "z": "7f8073e4.807f8c",
      "name": "Add Customer Config",
      "func": "\nmsg.config.websocket = msg.config.websocket + 'customer';\nmsg.config.assets = msg.config.assets + 'phone-customer-app';\n\nreturn msg;",
      "outputs": 1,
      "noerr": 0,
      "x": 559,
      "y": 110,
      "wires": [
        [
          "919190c9.6e6e7"
        ]
      ]
    },
    {
      "id": "5405acba.abfa54",
      "type": "http in",
      "z": "7f8073e4.807f8c",
      "name": "GET customer app",
      "url": "/customer",
      "method": "get",
      "swaggerDoc": "",
      "x": 130,
      "y": 108,
      "wires": [
        [
          "496bd3e0.b6942c"
        ]
      ]
    },
    {
      "id": "919190c9.6e6e7",
      "type": "template",
      "z": "7f8073e4.807f8c",
      "name": "Customer Screens",
      "field": "payload",
      "format": "handlebars",
      "template": "<div class=\"screen\" id=\"screen-loyalty\">\n    <img src=\"{{{config.assets}}}/loyalty.jpg\" alt=\"loyality\" border=\"0\" />\n    <a style=\"top: 0%; left:0%; width: 100%; height: 100%;\" onclick=\"actions.show('screen-wishlist')\" href=\"#\"></a>\n</div>\n    \n<div class=\"screen\" id=\"screen-wishlist\" style=\"display: none;\">\n    <img src=\"{{{config.assets}}}/wishlist.jpg\" alt=\"wishlist\" border=\"0\" />\n    <a style=\"top: 0%; left:85%; width: 25%; height: 20%;\" onclick=\"actions.triggerAndAlert('requestAssistant', 'A sales assistant is on their way to help')\" href=\"#\"></a>\n</div>\n\n<script>\n    document.currentScreen = document.getElementById(\"screen-loyalty\");\n</script>",
      "x": 777.5,
      "y": 110.5,
      "wires": [
        [
          "f606388c.09f9c8"
        ]
      ]
    },
    {
      "id": "496bd3e0.b6942c",
      "type": "subflow:1742d47d.e8bd2c",
      "z": "7f8073e4.807f8c",
      "name": "",
      "x": 342,
      "y": 113,
      "wires": [
        [
          "5c652b6d.a39ad4"
        ]
      ]
    },
    {
      "id": "f606388c.09f9c8",
      "type": "subflow:f040390e.0fbfc8",
      "z": "7f8073e4.807f8c",
      "name": "",
      "x": 1025.250015258789,
      "y": 154.00000190734863,
      "wires": []
    },
    {
      "id": "6ec668f1.913998",
      "type": "function",
      "z": "7f8073e4.807f8c",
      "name": "Add Assistant Config",
      "func": "\nmsg.config.websocket = msg.config.websocket + 'assistant';\nmsg.config.assets = msg.config.assets + 'tablet-sales-app';\n\nreturn msg;",
      "outputs": 1,
      "noerr": 0,
      "x": 559,
      "y": 196.75,
      "wires": [
        [
          "c4444389.3bbbc"
        ]
      ]
    },
    {
      "id": "c3babf.ff3c454",
      "type": "http in",
      "z": "7f8073e4.807f8c",
      "name": "GET assistant app",
      "url": "/assistant",
      "method": "get",
      "swaggerDoc": "",
      "x": 130,
      "y": 194.75,
      "wires": [
        [
          "ed6d2c89.1292d"
        ]
      ]
    },
    {
      "id": "c4444389.3bbbc",
      "type": "template",
      "z": "7f8073e4.807f8c",
      "name": "Assistant Screens",
      "field": "payload",
      "format": "handlebars",
      "template": "<button style=\"top:2%; left:87%; max-height:5%; width:10%; z-index:10; position:fixed; font-size:1.2vw\" onclick=\"actions.trigger('reset')\">Reset</button>\n<button style=\"top:2%; left:75%; max-height:5%; width:10%; z-index:10; position:fixed; font-size:1.2vw\" onclick=\"actions.trigger('toggleCast')\">Screen Cast</button>\n\n<div class=\"screen\" id=\"screen-waiting\">\n    <img src=\"{{{config.assets}}}/waiting.jpg\" alt=\"hub\" border=\"0\" />\n</div>\n\n<div class=\"screen\" id=\"screen-hub\" style=\"display: none;\">\n    <img src=\"{{{config.assets}}}/hub.jpg\" alt=\"hub\" border=\"0\" />\n    <a style=\"top: 0%; left:0%; width: 100%; height: 100%;\" onclick=\"actions.show('screen-customer')\" href=\"#\"></a>\n</div>\n    \n<div class=\"screen\" id=\"screen-customer\" style=\"display: none;\">\n    <img src=\"{{{config.assets}}}/customerRoot.jpg\" border=\"0\" />\n    <a style=\"left: 3.5%; top:55%; width: 24%; height: 40.6%;\" onclick=\"actions.show('screen-product1')\" href=\"#\"></a>\n    <a style=\"left: 27.6%; top:55%; width: 24%; height: 40.6%;\" onclick=\"actions.show('screen-product2')\" href=\"#\"></a>\n    <a style=\"left: 51.75%; top:55%; width: 24%; height: 40.6%;\" onclick=\"actions.show('screen-product3')\" href=\"#\"></a>\n    <a style=\"left: 75.9%; top:55%; width: 24%; height: 40.6%;\" onclick=\"actions.show('screen-product4')\" href=\"#\"></a>\n</div>\n\n<div class=\"screen\" id=\"screen-product1\" style=\"display: none;\">\n    <img src=\"{{{config.assets}}}/customerProduct1.jpg\" border=\"0\" />\n     <a style=\"left: 0%; top:0%; width: 10%; height: 10%;\" onclick=\"actions.show('screen-customer')\" href=\"#\"></a>\n     <a style=\"left: 0%; top:30%; width: 15%; height: 30%;\" onclick=\"actions.showRight('screen-product5')\" href=\"#\"></a>\n     <a style=\"left: 85%; top:30%; width: 15%; height: 30%;\" onclick=\"actions.showLeft('screen-product2')\" href=\"#\"></a>\n</div>\n\n<div class=\"screen\" id=\"screen-product2\" style=\"display: none;\">\n    <img src=\"{{{config.assets}}}/customerProduct2.jpg\" border=\"0\" />\n     <a style=\"left: 0%; top:0%; width: 10%; height: 10%;\" onclick=\"actions.show('screen-customer')\" href=\"#\"></a>\n     <a style=\"left: 0%; top:30%; width: 15%; height: 30%;\" onclick=\"actions.showRight('screen-product1')\" href=\"#\"></a>\n     <a style=\"left: 85%; top:30%; width: 15%; height: 30%;\" onclick=\"actions.showLeft('screen-product3')\" href=\"#\"></a>\n</div>\n\n<div class=\"screen\" id=\"screen-product3\" style=\"display: none;\">\n    <img src=\"{{{config.assets}}}/customerProduct3.jpg\" border=\"0\" />\n     <a style=\"left: 0%; top:0%; width: 10%; height: 10%;\" onclick=\"actions.show('screen-customer')\" href=\"#\"></a>\n     <a style=\"left: 0%; top:30%; width: 15%; height: 30%;\" onclick=\"actions.showRight('screen-product2')\" href=\"#\"></a>\n     <a style=\"left: 85%; top:30%; width: 15%; height: 30%;\" onclick=\"actions.showLeft('screen-product4')\" href=\"#\"></a>\n</div>\n\n<div class=\"screen\" id=\"screen-product4\" style=\"display: none;\">\n    <img src=\"{{{config.assets}}}/customerProduct4.jpg\" border=\"0\" />\n     <a style=\"left: 0%; top:0%; width: 10%; height: 10%;\" onclick=\"actions.show('screen-customer')\" href=\"#\"></a>\n     <a style=\"left: 0%; top:30%; width: 15%; height: 30%;\" onclick=\"actions.showRight('screen-product3')\" href=\"#\"></a>\n     <a style=\"left: 85%; top:30%; width: 15%; height: 30%;\" onclick=\"actions.showLeft('screen-product5')\" href=\"#\"></a>\n</div>\n\n<div class=\"screen\" id=\"screen-product5\" style=\"display: none;\">\n    <img src=\"{{{config.assets}}}/customerProduct5.jpg\" border=\"0\" />\n     <a style=\"left: 0%; top:0%; width: 10%; height: 10%;\" onclick=\"actions.show('screen-customer')\" href=\"#\"></a>\n     <a style=\"left: 0%; top:30%; width: 15%; height: 30%;\" onclick=\"actions.showRight('screen-product4')\" href=\"#\"></a>\n     <a style=\"left: 85%; top:30%; width: 15%; height: 30%;\" onclick=\"actions.showLeft('screen-product1')\" href=\"#\"></a>\n</div>\n\n\n<script>\n    document.currentScreen = document.getElementById(\"screen-waiting\");\n</script>",
      "x": 780.5000114440918,
      "y": 197.25000143051147,
      "wires": [
        [
          "f606388c.09f9c8"
        ]
      ]
    },
    {
      "id": "ed6d2c89.1292d",
      "type": "subflow:1742d47d.e8bd2c",
      "z": "7f8073e4.807f8c",
      "name": "",
      "x": 344,
      "y": 194.75,
      "wires": [
        [
          "6ec668f1.913998"
        ]
      ]
    },
    {
      "id": "8d47a4a.f72b858",
      "type": "function",
      "z": "7f8073e4.807f8c",
      "name": "Add Store Screen Config",
      "func": "\nmsg.config.websocket = msg.config.websocket + 'screen';\nmsg.config.assets = msg.config.assets + 'tv-floor-display';\nmsg.config.slideshowDelay = 5000;\n\nreturn msg;",
      "outputs": 1,
      "noerr": 0,
      "x": 558,
      "y": 285.5,
      "wires": [
        [
          "e3facf9c.1c053"
        ]
      ]
    },
    {
      "id": "46ae179.fb951e8",
      "type": "http in",
      "z": "7f8073e4.807f8c",
      "name": "GET store screen app",
      "url": "/screen",
      "method": "get",
      "swaggerDoc": "",
      "x": 129,
      "y": 283.5,
      "wires": [
        [
          "52a2662c.ad5d98"
        ]
      ]
    },
    {
      "id": "e3facf9c.1c053",
      "type": "template",
      "z": "7f8073e4.807f8c",
      "name": "Store Screen Screens",
      "field": "payload",
      "format": "handlebars",
      "template": "<div class=\"screen\" id=\"screen-slideshow\">\n    <img id=\"slideshow1\" src=\"{{{config.assets}}}/slideshow1.png\" alt=\"hub\" border=\"0\" />\n    <img id=\"slideshow2\" src=\"{{{config.assets}}}/slideshow2.png\" alt=\"hub\" border=\"0\" style=\"display: none;\" />\n    <img id=\"slideshow3\" src=\"{{{config.assets}}}/slideshow3.png\" alt=\"hub\" border=\"0\" style=\"display: none;\" />\n    <img id=\"slideshow4\" src=\"{{{config.assets}}}/slideshow4.png\" alt=\"hub\" border=\"0\" style=\"display: none;\" />\n\n</div>\n\n<div class=\"screen\" id=\"screen-products\" style=\"display: none;\">\n    <img id=\"product1\" src=\"{{{config.assets}}}/product-1.png\" alt=\"hub\" border=\"0\" />\n    <img id=\"product2\" src=\"{{{config.assets}}}/product-2.png\" alt=\"hub\" border=\"0\" style=\"display: none;\" />\n    <img id=\"product3\" src=\"{{{config.assets}}}/product-3.png\" alt=\"hub\" border=\"0\" style=\"display: none;\" />\n    <img id=\"product4\" src=\"{{{config.assets}}}/product-4.png\" alt=\"hub\" border=\"0\" style=\"display: none;\" />\n    <img id=\"product5\" src=\"{{{config.assets}}}/product-5.png\" alt=\"hub\" border=\"0\" style=\"display: none;\" />\n    <img id=\"product6\" src=\"{{{config.assets}}}/product-1.png\" alt=\"hub\" border=\"0\" style=\"display: none;\" />\n    <img id=\"product7\" src=\"{{{config.assets}}}/product-2.png\" alt=\"hub\" border=\"0\" style=\"display: none;\" />\n    <a style=\"left: 0%; top:65%; width: 10%; height: 30%;\" onclick=\"prevProduct()\" href=\"#\"></a>\n    <a style=\"left: 90%; top:65%; width: 10%; height: 30%;\" onclick=\"nextProduct()\" href=\"#\"></a>\n    <!--\n    <div style=\"width:98%; height:40%; overflow-x:scroll; overflow-y:hidden\">\n        <img src=\"{{{config.assets}}}/details-footer.png\" style=\"height:100%; width:auto; position:relative;\">\n    </div>\n    -->\n</div>\n\n<script>\n    document.currentScreen = document.getElementById(\"screen-slideshow\");\n    \n    document.currentSlide = 1;\n    \n    document.currentProduct = 1;\n    \n    //Show product subview\n    showProduct = function(product) {\n        actions.swap('product' + document.currentProduct, 'product' + product);\n        document.currentProduct = product;\n    };\n    \n    nextProduct = function() {\n        \n        showProduct(document.currentProduct%7 + 1);  \n    };\n    \n    prevProduct = function () {\n        \n        showProduct(document.currentProduct === 1 ? 7 : document.currentProduct - 1);  \n    };\n    \n    // Automated slideshow\n    setInterval(function() {\n        \n        var slide = document.getElementById(\"slideshow\" + document.currentSlide.toString());\n        slide.style.display = 'none';\n        \n        if (document.currentSlide === 4) { document.currentSlide = 0;}\n        \n        document.currentSlide++;\n        \n        var slide = document.getElementById(\"slideshow\" + document.currentSlide.toString());\n        slide.style.display = 'block';\n      \n    }, {{{config.slideshowDelay}}});\n    \n</script>",
      "x": 779.5000114440918,
      "y": 286.0000014305115,
      "wires": [
        [
          "f606388c.09f9c8"
        ]
      ]
    },
    {
      "id": "52a2662c.ad5d98",
      "type": "subflow:1742d47d.e8bd2c",
      "z": "7f8073e4.807f8c",
      "name": "",
      "x": 343,
      "y": 283.5,
      "wires": [
        [
          "8d47a4a.f72b858"
        ]
      ]
    }
  ]
}